^Y:\GD\MOOC\ALGO\ALGO VS\CLUSTERING\DEBUG\CLUSTERING.OBJ|Y:\GD\MOOC\ALGO\ALGO VS\CLUSTERING\DEBUG\STDAFX.OBJ
Y:\GD\MOOC\ALGO\ALGO VS\DEBUG\CLUSTERING.ILK
Y:\GD\MOOC\ALGO\ALGO VS\DEBUG\CLUSTERING.EXE
Y:\GD\MOOC\ALGO\ALGO VS\DEBUG\CLUSTERING.PDB
